﻿{
  "Group": "Misc",
  "FriendlyName": "RSSFeedIntegration",
  "SystemName": "Misc.RSSFeedIntegration",
  "Version": "1.00",
  "SupportedVersions": [ "4.40" ],
  "Author": "Exelia Technologies",
  "DisplayOrder": 1,
  "FileName": "Nop.Plugin.Misc.RSSFeedIntegration.dll",
  "Description": "This plugin allows integration with RSS feed"
}